…
# dplyr: A tool to access and manipulate data in a dataframe

---
## Select
Select allows you to make a vector or dataframe from a specific variable or variables

```r
# Select one variable (common_name)
select(df1, common_name)
```

```
## # A tibble: 97 x 1
##    common_name   
##    <chr>         
##  1 Chinook salmon
##  2 Sockeye salmon
##  3 Sockeye salmon
##  4 Steelhead     
##  5 Steelhead     
##  6 Chinook salmon
##  7 Sockeye salmon
##  8 Steelhead     
##  9 Steelhead     
## 10 Steelhead     
## # … with 87 more rows
```

```r
# Select two variables (age_classbylength and common_name)
select(df1, age_classbylength, common_name)
```

```
## # A tibble: 97 x 2
##    age_classbylength  common_name   
##    <chr>              <chr>         
##  1 yearling           Chinook salmon
##  2 juvenile           Sockeye salmon
##  3 juvenile           Sockeye salmon
##  4 juvenile           Steelhead     
##  5 juvenile           Steelhead     
##  6 mixed age juvenile Chinook salmon
##  7 juvenile           Sockeye salmon
##  8 juvenile           Steelhead     
##  9 juvenile           Steelhead     
## 10 juvenile           Steelhead     
## # … with 87 more rows
```

```r
# Select all but one variable (length_mm)
select(df1,-length_mm)
```

```
## # A tibble: 97 x 4
##    salmon_id common_name    age_classbylength  IGF1_ng_ml
##        <dbl> <chr>          <chr>                   <dbl>
##  1     35032 Chinook salmon yearling                 41.3
##  2     35035 Sockeye salmon juvenile                 NA  
##  3     35036 Sockeye salmon juvenile                 NA  
##  4     35037 Steelhead      juvenile                 42.7
##  5     35038 Steelhead      juvenile                 NA  
##  6     35033 Chinook salmon mixed age juvenile       62.1
##  7     35034 Sockeye salmon juvenile                 NA  
##  8     35048 Steelhead      juvenile                 24.2
##  9     35049 Steelhead      juvenile                 NA  
## 10     35050 Steelhead      juvenile                 63.5
## # … with 87 more rows
```

```r
# Select all a range of contiguous varibles (common_name:length_mm)
select(df1, common_name:length_mm)
```

```
## # A tibble: 97 x 3
##    common_name    age_classbylength  length_mm
##    <chr>          <chr>                  <dbl>
##  1 Chinook salmon yearling                 147
##  2 Sockeye salmon juvenile                 121
##  3 Sockeye salmon juvenile                 112
##  4 Steelhead      juvenile                 220
##  5 Steelhead      juvenile                 152
##  6 Chinook salmon mixed age juvenile       444
##  7 Sockeye salmon juvenile                 139
##  8 Steelhead      juvenile                 288
##  9 Steelhead      juvenile                 190
## 10 Steelhead      juvenile                 283
## # … with 87 more rows
```
…
```r
# Filter all observations where the variable common_name is either Sockeye salmon or Chinook Salmon
filter(df1, common_name %in% c('Sockeye salmon', 'Chinook salmon'))
```

```
## # A tibble: 57 x 5
##    salmon_id common_name    age_classbylength  length_mm IGF1_ng_ml
##        <dbl> <chr>          <chr>                  <dbl>      <dbl>
##  1     35032 Chinook salmon yearling                 147       41.3
##  2     35035 Sockeye salmon juvenile                 121       NA  
##  3     35036 Sockeye salmon juvenile                 112       NA  
##  4     35033 Chinook salmon mixed age juvenile       444       62.1
##  5     35034 Sockeye salmon juvenile                 139       NA  
##  6     35142 Chinook salmon yearling                 149       66.5
##  7     35143 Chinook salmon yearling                 204       80.9
##  8     35144 Sockeye salmon juvenile                 140       NA  
##  9     35145 Chinook salmon yearling                 130       23.4
## 10     35146 Chinook salmon mixed age juvenile       422      101. 
## # … with 47 more rows
```

```r
# Filter all observations where the variable common_name ends with 'salmon'. To do this we use stringr function str_ends recognise strings that end with 'salmon'.
filter(df1, str_ends(common_name, 'salmon'))
```

```
## # A tibble: 59 x 5
##    salmon_id common_name    age_classbylength  length_mm IGF1_ng_ml
##        <dbl> <chr>          <chr>                  <dbl>      <dbl>
##  1     35032 Chinook salmon yearling                 147       41.3
##  2     35035 Sockeye salmon juvenile                 121       NA  
##  3     35036 Sockeye salmon juvenile                 112       NA  
##  4     35033 Chinook salmon mixed age juvenile       444       62.1
##  5     35034 Sockeye salmon juvenile                 139       NA  
##  6     35142 Chinook salmon yearling                 149       66.5
##  7     35143 Chinook salmon yearling                 204       80.9
##  8     35144 Sockeye salmon juvenile                 140       NA  
##  9     35145 Chinook salmon yearling                 130       23.4
## 10     35146 Chinook salmon mixed age juvenile       422      101. 
## # … with 49 more rows
```

```r
# Filter all observations where the variable length_mm is greater than 200 or less than 120
filter(df1, length_mm > 200 | length_mm < 120)
```

```
## # A tibble: 36 x 5
##    salmon_id common_name    age_classbylength  length_mm IGF1_ng_ml
##        <dbl> <chr>          <chr>                  <dbl>      <dbl>
##  1     35036 Sockeye salmon juvenile                 112       NA  
##  2     35037 Steelhead      juvenile                 220       42.7
##  3     35033 Chinook salmon mixed age juvenile       444       62.1
##  4     35048 Steelhead      juvenile                 288       24.2
##  5     35050 Steelhead      juvenile                 283       63.5
##  6     35051 Steelhead      juvenile                 279       61.2
##  7     35052 Steelhead      juvenile                 235       30.6
##  8     35053 Steelhead      juvenile                 230       49.4
##  9     35056 Steelhead      juvenile                 208       57.4
## 10     35057 Steelhead      juvenile                 240       20.2
## # … with 26 more rows
```
…
* Create a dataframe of the variables *age* and *IGF* of only the *Steelhead* fish
* Create a dataframe of all variables but the *IGF* values, for all fish that begin with *S*

---
## ANSWERS

```r
# Create a dataframe of the variables *age* and *IGF* of only the *Steelhead* fish
df1_A <- filter(df1, common_name == 'Steelhead')
select(df1_A, age_classbylength, IGF1_ng_ml)
```

```
## # A tibble: 38 x 2
##    age_classbylength IGF1_ng_ml
##    <chr>                  <dbl>
##  1 juvenile                42.7
##  2 juvenile                NA  
##  3 juvenile                24.2
##  4 juvenile                NA  
##  5 juvenile                63.5
##  6 juvenile                61.2
##  7 juvenile                30.6
##  8 juvenile                49.4
##  9 juvenile                56.3
## 10 juvenile                55.7
## # … with 28 more rows
```

```r
# Create a dataframe of all variables but the *IGF* values, for all fish that begin with *S*
df1_A <- filter(df1, str_starts(common_name,'S'))
select(df1_A, -IGF1_ng_ml)
```

```
## # A tibble: 49 x 4
##    salmon_id common_name    age_classbylength length_mm
##        <dbl> <chr>          <chr>                 <dbl>
##  1     35035 Sockeye salmon juvenile                121
##  2     35036 Sockeye salmon juvenile                112
##  3     35037 Steelhead      juvenile                220
##  4     35038 Steelhead      juvenile                152
##  5     35034 Sockeye salmon juvenile                139
##  6     35048 Steelhead      juvenile                288
##  7     35049 Steelhead      juvenile                190
##  8     35050 Steelhead      juvenile                283
##  9     35051 Steelhead      juvenile                279
## 10     35052 Steelhead      juvenile                235
## # … with 39 more rows
```

---
## Arrange
Arrange sorts the dataframe based on a specific variable or variables

```r
# Arrange the data based on the variable length_mm
arrange(df1, length_mm)
```

```
## # A tibble: 97 x 5
##    salmon_id common_name    age_classbylength length_mm IGF1_ng_ml
##        <dbl> <chr>          <chr>                 <dbl>      <dbl>
##  1     35095 Chinook salmon subyearling              90         NA
##  2     35097 Sockeye salmon juvenile                110         NA
##  3     35099 Sockeye salmon juvenile                111         NA
##  4     35036 Sockeye salmon juvenile                112         NA
##  5     35098 Sockeye salmon juvenile                112         NA
##  6     35147 Sockeye salmon juvenile                115         NA
##  7     35096 Sockeye salmon juvenile                115         NA
##  8     35100 Sockeye salmon juvenile                118         NA
##  9     35035 Sockeye salmon juvenile                121         NA
## 10     35119 Sockeye salmon juvenile                122         NA
## # … with 87 more rows
```

```r
# Arrange the data first based on the variable common_name, then secondly based on length_mm in a descending order.
arrange(df1, common_name, desc(length_mm))
```

```
## # A tibble: 97 x 5
##    salmon_id common_name    age_classbylength  length_mm IGF1_ng_ml
##        <dbl> <chr>          <chr>                  <dbl>      <dbl>
##  1     35033 Chinook salmon mixed age juvenile       444      62.1 
##  2     35146 Chinook salmon mixed age juvenile       422     101.  
##  3     35110 Chinook salmon mixed age juvenile       275      81.5 
##  4     35129 Chinook salmon yearling                 225      72.7 
##  5     35103 Chinook salmon yearling                 216      81.2 
##  6     35115 Chinook salmon yearling                 215      53.5 
##  7     35112 Chinook salmon yearling                 205      90.5 
##  8     35143 Chinook salmon yearling                 204      80.9 
##  9     35079 Chinook salmon yearling                 199      53.2 
## 10     35081 Chinook salmon yearling                 196       5.56
## # … with 87 more rows
```

---
## Mutate
Mutate creates a new variable based on some form of computation

```r
# A new variable is created based on the calculation of the z-score of the variable IGF1_ng_ml using scale()
mutate(df1, scale(IGF1_ng_ml))
```

```
## # A tibble: 97 x 6
##    salmon_id common_name age_classbyleng… length_mm IGF1_ng_ml
##        <dbl> <chr>       <chr>                <dbl>      <dbl>
##  1     35032 Chinook sa… yearling               147       41.3
##  2     35035 Sockeye sa… juvenile               121       NA  
##  3     35036 Sockeye sa… juvenile               112       NA  
##  4     35037 Steelhead   juvenile               220       42.7
##  5     35038 Steelhead   juvenile               152       NA  
##  6     35033 Chinook sa… mixed age juven…       444       62.1
##  7     35034 Sockeye sa… juvenile               139       NA  
##  8     35048 Steelhead   juvenile               288       24.2
##  9     35049 Steelhead   juvenile               190       NA  
## 10     35050 Steelhead   juvenile               283       63.5
## # … with 87 more rows, and 1 more variable: `scale(IGF1_ng_ml)`[,1] <dbl>
```

```r
# A new variable is created called IGFngml_zscore, based on the caluclation of the z-score of the variable IGF1_ng_ml using scale()
mutate(df1, IGFngml_zscore = scale(IGF1_ng_ml))
```

```
## # A tibble: 97 x 6
##    salmon_id common_name age_classbyleng… length_mm IGF1_ng_ml
##        <dbl> <chr>       <chr>                <dbl>      <dbl>
##  1     35032 Chinook sa… yearling               147       41.3
##  2     35035 Sockeye sa… juvenile               121       NA  
##  3     35036 Sockeye sa… juvenile               112       NA  
##  4     35037 Steelhead   juvenile               220       42.7
##  5     35038 Steelhead   juvenile               152       NA  
##  6     35033 Chinook sa… mixed age juven…       444       62.1
##  7     35034 Sockeye sa… juvenile               139       NA  
##  8     35048 Steelhead   juvenile               288       24.2
##  9     35049 Steelhead   juvenile               190       NA  
## 10     35050 Steelhead   juvenile               283       63.5
## # … with 87 more rows, and 1 more variable: IGFngml_zscore[,1] <dbl>
```
…
* Create a dataframe with a new variable that contains the rank of the *length* variable. Arrange this new data frame by *IGF* (lowest to highest).
* Create a dataframe with a new variable that is *IGF*/*length*. Arrange by this new variable (highest to lowest).

---
## ANSWERS

```r
# Create a dataframe with a new variable that contains the rank of the *length* variable. Arrange this new data frame by *IGF* (lowest to highest).
df1_A <- mutate(df1, length_rank=rank(length_mm))
arrange(df1_A, IGF1_ng_ml)
```

```
## # A tibble: 97 x 6
##    salmon_id common_name  age_classbyleng… length_mm IGF1_ng_ml length_rank
##        <dbl> <chr>        <chr>                <dbl>      <dbl>       <dbl>
##  1     35045 Steelhead    juvenile               177       4.46        49  
##  2     35081 Chinook sal… yearling               196       5.56        63.5
##  3     35062 Steelhead    juvenile               198       5.90        65.5
##  4     35138 Chinook sal… yearling               142       9.17        18  
##  5     35039 Steelhead    juvenile               201       9.92        70  
##  6     35135 Chinook sal… yearling               181      11.5         52.5
##  7     35113 Chinook sal… yearling               162      14.2         38  
##  8     35064 Steelhead    juvenile               225      16.0         80.5
##  9     35082 Chinook sal… yearling               150      17.1         29.5
## 10     35057 Steelhead    juvenile               240      20.2         86  
## # … with 87 more rows
```

```r
#Create a dataframe with a new variable that is *IGF*/*length*. Arrange by this new variable (highest to lowest).
df1_A <- mutate(df1, IGF_perlength=IGF1_ng_ml/length_mm)
arrange(df1_A, -IGF_perlength)
```

```
## # A tibble: 97 x 6
##    salmon_id common_name age_classbyleng… length_mm IGF1_ng_ml
##        <dbl> <chr>       <chr>                <dbl>      <dbl>
##  1     35055 Steelhead   juvenile               123       55.7
##  2     35087 Coho salmon yearling               164       73.6
##  3     35142 Chinook sa… yearling               149       66.5
##  4     35112 Chinook sa… yearling               205       90.5
##  5     35092 Chinook sa… yearling               192       81.8
##  6     35117 Chinook sa… yearling               147       61.2
##  7     35090 Chinook sa… yearling               167       67.3
##  8     35143 Chinook sa… yearling               204       80.9
##  9     35059 Steelhead   juvenile               185       73.1
## 10     35101 Steelhead   juvenile               167       65.4
## # … with 87 more rows, and 1 more variable: IGF_perlength <dbl>
```
…
```r
# Filter obsevrations with at least 5 for each grouped common_names
filter(df1_byname, n() > 5)
```

```
## # A tibble: 95 x 5
## # Groups:   common_name [3]
##    salmon_id common_name    age_classbylength  length_mm IGF1_ng_ml
##        <dbl> <chr>          <chr>                  <dbl>      <dbl>
##  1     35032 Chinook salmon yearling                 147       41.3
##  2     35035 Sockeye salmon juvenile                 121       NA  
##  3     35036 Sockeye salmon juvenile                 112       NA  
##  4     35037 Steelhead      juvenile                 220       42.7
##  5     35038 Steelhead      juvenile                 152       NA  
##  6     35033 Chinook salmon mixed age juvenile       444       62.1
##  7     35034 Sockeye salmon juvenile                 139       NA  
##  8     35048 Steelhead      juvenile                 288       24.2
##  9     35049 Steelhead      juvenile                 190       NA  
## 10     35050 Steelhead      juvenile                 283       63.5
## # … with 85 more rows
```

```r
# A new variable is created using z-score within the grouped common_names
mutate(df1_byname, IGFngml_zscore = scale(IGF1_ng_ml))
```

```
## # A tibble: 97 x 6
## # Groups:   common_name [4]
##    salmon_id common_name age_classbyleng… length_mm IGF1_ng_ml
##        <dbl> <chr>       <chr>                <dbl>      <dbl>
##  1     35032 Chinook sa… yearling               147       41.3
##  2     35035 Sockeye sa… juvenile               121       NA  
##  3     35036 Sockeye sa… juvenile               112       NA  
##  4     35037 Steelhead   juvenile               220       42.7
##  5     35038 Steelhead   juvenile               152       NA  
##  6     35033 Chinook sa… mixed age juven…       444       62.1
##  7     35034 Sockeye sa… juvenile               139       NA  
##  8     35048 Steelhead   juvenile               288       24.2
##  9     35049 Steelhead   juvenile               190       NA  
## 10     35050 Steelhead   juvenile               283       63.5
## # … with 87 more rows, and 1 more variable: IGFngml_zscore <dbl>
```
…
```r
untidy_counts
```

```
## # A tibble: 100 x 5
##    ENTREZ CD34_1 ORTHO_1 CD34_2 ORTHO_2
##     <dbl>  <dbl>   <dbl>  <dbl>   <dbl>
##  1    350    204       0    103       0
##  2    351  15586     479  10476      39
##  3    353    842     355   1188      86
##  4    354      0       0      0       0
##  5    355    123     291    139      16
##  6    356      1       1      0       0
##  7    357    380       3    177       0
##  8    358    572    2225    597    4051
##  9    359      0      12      1       0
## 10    360    320     502     46    1114
## # … with 90 more rows
```

```r
# Tibbles carry and display extra information. While reading in it is easy to specify data type. 
untidy_counts <- read_csv("dataset/hemato_rnaseq_counts.csv", col_types = cols(
    ENTREZ = col_character(),
    CD34_1 = col_integer(),
    ORTHO_1 = col_integer(),
    CD34_2 = col_integer(),
    ORTHO_2 = col_integer()
  ))
untidy_counts
```

```
## # A tibble: 100 x 5
##    ENTREZ CD34_1 ORTHO_1 CD34_2 ORTHO_2
##    <chr>   <int>   <int>  <int>   <int>
##  1 350       204       0    103       0
##  2 351     15586     479  10476      39
##  3 353       842     355   1188      86
##  4 354         0       0      0       0
##  5 355       123     291    139      16
##  6 356         1       1      0       0
##  7 357       380       3    177       0
##  8 358       572    2225    597    4051
##  9 359         0      12      1       0
## 10 360       320     502     46    1114
## # … with 90 more rows
```

# Tibbles

---
## Subsetting tibbles

```r
#Can use the same way as base to interact with the tibble dataframe
untidy_counts[,1]
```

```
## # A tibble: 100 x 1
##    ENTREZ
##    <chr> 
##  1 350   
##  2 351   
##  3 353   
##  4 354   
##  5 355   
##  6 356   
##  7 357   
##  8 358   
##  9 359   
## 10 360   
## # … with 90 more rows
```
…
```
## # A tibble: 1 x 5
##   ENTREZ CD34_1 ORTHO_1 CD34_2 ORTHO_2
##   <chr>   <int>   <int>  <int>   <int>
## 1 350       204       0    103       0
```

```r
#Can also not specify which dimension you pull from. This will default to grabbing the column
untidy_counts[1]
```

```
## # A tibble: 100 x 1
##    ENTREZ
##    <chr> 
##  1 350   
##  2 351   
##  3 353   
##  4 354   
##  5 355   
##  6 356   
##  7 357   
##  8 358   
##  9 359   
## 10 360   
## # … with 90 more rows
```
…
