20191009_tidyr.utf8
…
-> insert graphic here https://github.com/trinker/tidyr_in_a_nutshell

dplyr

This package contains a variety of tools to access and manipulate dataframes.

dplyr::select

Select allows you to make a vector from a specific variable

# Select one variable (common_name)
select(df1, common_name)

## # A tibble: 97 x 1
##    common_name   
##    <chr>         
##  1 Chinook salmon
##  2 Sockeye salmon
##  3 Sockeye salmon
##  4 Steelhead     
##  5 Steelhead     
##  6 Chinook salmon
##  7 Sockeye salmon
##  8 Steelhead     
##  9 Steelhead     
## 10 Steelhead     
## #  with 87 more rows

dplyr::select

Select allows you to make a dataframe from several variables

# Select two variables (age_classbylength and common_name)
select(df1, age_classbylength, common_name)

## # A tibble: 97 x 2
##    age_classbylength  common_name   
##    <chr>              <chr>         
##  1 yearling           Chinook salmon
##  2 juvenile           Sockeye salmon
##  3 juvenile           Sockeye salmon
##  4 juvenile           Steelhead     
##  5 juvenile           Steelhead     
##  6 mixed age juvenile Chinook salmon
##  7 juvenile           Sockeye salmon
##  8 juvenile           Steelhead     
##  9 juvenile           Steelhead     
## 10 juvenile           Steelhead     
## #  with 87 more rows

dplyr::select

Select allows you to make a dataframe excluding a variable

# Select all but one variable (length_mm)
select(df1,-length_mm)

## # A tibble: 97 x 4
##    salmon_id common_name    age_classbylength  IGF1_ng_ml
##        <dbl> <chr>          <chr>                   <dbl>
##  1     35032 Chinook salmon yearling                 41.3
##  2     35035 Sockeye salmon juvenile                 NA  
##  3     35036 Sockeye salmon juvenile                 NA  
##  4     35037 Steelhead      juvenile                 42.7
##  5     35038 Steelhead      juvenile                 NA  
##  6     35033 Chinook salmon mixed age juvenile       62.1
##  7     35034 Sockeye salmon juvenile                 NA  
##  8     35048 Steelhead      juvenile                 24.2
##  9     35049 Steelhead      juvenile                 NA  
## 10     35050 Steelhead      juvenile                 63.5
## #  with 87 more rows

dplyr::select

Select allows you to make a dataframe from a range of variables

# Select all a range of contiguous varibles (common_name:length_mm)
select(df1, common_name:length_mm)

## # A tibble: 97 x 3
##    common_name    age_classbylength  length_mm
##    <chr>          <chr>                  <dbl>
##  1 Chinook salmon yearling                 147
##  2 Sockeye salmon juvenile                 121
##  3 Sockeye salmon juvenile                 112
##  4 Steelhead      juvenile                 220
##  5 Steelhead      juvenile                 152
##  6 Chinook salmon mixed age juvenile       444
##  7 Sockeye salmon juvenile                 139
##  8 Steelhead      juvenile                 288
##  9 Steelhead      juvenile                 190
## 10 Steelhead      juvenile                 283
## #  with 87 more rows
…
dplyr::filter - (pt2)

Filter allows you to access observations based on several criteria

# Filter all observations where the variable common_name is either Sockeye salmon or Chinook Salmon
filter(df1, common_name %in% c('Sockeye salmon', 'Chinook salmon'))

## # A tibble: 57 x 5
##    salmon_id common_name    age_classbylength  length_mm IGF1_ng_ml
##        <dbl> <chr>          <chr>                  <dbl>      <dbl>
##  1     35032 Chinook salmon yearling                 147       41.3
##  2     35035 Sockeye salmon juvenile                 121       NA  
##  3     35036 Sockeye salmon juvenile                 112       NA  
##  4     35033 Chinook salmon mixed age juvenile       444       62.1
##  5     35034 Sockeye salmon juvenile                 139       NA  
##  6     35142 Chinook salmon yearling                 149       66.5
##  7     35143 Chinook salmon yearling                 204       80.9
##  8     35144 Sockeye salmon juvenile                 140       NA  
##  9     35145 Chinook salmon yearling                 130       23.4
## 10     35146 Chinook salmon mixed age juvenile       422      101. 
## #  with 47 more rows

dplyr::filter - (pt3)

Filter allows you to access observations based on specific strings

# Filter all observations where the variable common_name ends with 'salmon'. To do this we use stringr function str_ends recognise strings that end with 'salmon'.
filter(df1, str_ends(common_name, 'salmon'))

## # A tibble: 59 x 5
##    salmon_id common_name    age_classbylength  length_mm IGF1_ng_ml
##        <dbl> <chr>          <chr>                  <dbl>      <dbl>
##  1     35032 Chinook salmon yearling                 147       41.3
##  2     35035 Sockeye salmon juvenile                 121       NA  
##  3     35036 Sockeye salmon juvenile                 112       NA  
##  4     35033 Chinook salmon mixed age juvenile       444       62.1
##  5     35034 Sockeye salmon juvenile                 139       NA  
##  6     35142 Chinook salmon yearling                 149       66.5
##  7     35143 Chinook salmon yearling                 204       80.9
##  8     35144 Sockeye salmon juvenile                 140       NA  
##  9     35145 Chinook salmon yearling                 130       23.4
## 10     35146 Chinook salmon mixed age juvenile       422      101. 
## #  with 49 more rows

dplyr::filter - (pt4)

Filter allows you to access observations based on operators

# Filter all observations where the variable length_mm is greater than 200 or less than 120
filter(df1, length_mm > 200 | length_mm < 120)

## # A tibble: 36 x 5
##    salmon_id common_name    age_classbylength  length_mm IGF1_ng_ml
##        <dbl> <chr>          <chr>                  <dbl>      <dbl>
##  1     35036 Sockeye salmon juvenile                 112       NA  
##  2     35037 Steelhead      juvenile                 220       42.7
##  3     35033 Chinook salmon mixed age juvenile       444       62.1
##  4     35048 Steelhead      juvenile                 288       24.2
##  5     35050 Steelhead      juvenile                 283       63.5
##  6     35051 Steelhead      juvenile                 279       61.2
##  7     35052 Steelhead      juvenile                 235       30.6
##  8     35053 Steelhead      juvenile                 230       49.4
##  9     35056 Steelhead      juvenile                 208       57.4
## 10     35057 Steelhead      juvenile                 240       20.2
## #  with 26 more rows

CHALLENGE

_ Create a dataframe with the variables age and IGF for only the Steelhead fish _ Create a dataframe with all the variables except the IGF values, for all fish that begin with S

ANSWERS

# Create a dataframe of the variables _age_ and _IGF_ of only the _Steelhead_ fish
df1_A <- filter(df1, common_name == 'Steelhead')
select(df1_A, age_classbylength, IGF1_ng_ml)

## # A tibble: 38 x 2
##    age_classbylength IGF1_ng_ml
##    <chr>                  <dbl>
##  1 juvenile                42.7
##  2 juvenile                NA  
##  3 juvenile                24.2
##  4 juvenile                NA  
##  5 juvenile                63.5
##  6 juvenile                61.2
##  7 juvenile                30.6
##  8 juvenile                49.4
##  9 juvenile                56.3
## 10 juvenile                55.7
## #  with 28 more rows

# Create a dataframe of all variables but the _IGF_ values, for all fish that begin with _S_
df1_A <- filter(df1, str_starts(common_name,'S'))
select(df1_A, -IGF1_ng_ml)

## # A tibble: 49 x 4
##    salmon_id common_name    age_classbylength length_mm
##        <dbl> <chr>          <chr>                 <dbl>
##  1     35035 Sockeye salmon juvenile                121
##  2     35036 Sockeye salmon juvenile                112
##  3     35037 Steelhead      juvenile                220
##  4     35038 Steelhead      juvenile                152
##  5     35034 Sockeye salmon juvenile                139
##  6     35048 Steelhead      juvenile                288
##  7     35049 Steelhead      juvenile                190
##  8     35050 Steelhead      juvenile                283
##  9     35051 Steelhead      juvenile                279
## 10     35052 Steelhead      juvenile                235
## #  with 39 more rows

dplyr::arrange - (pt1)

Arrange sorts the dataframe based on a specific variable

# Arrange the data based on the variable length_mm
arrange(df1, length_mm)

## # A tibble: 97 x 5
##    salmon_id common_name    age_classbylength length_mm IGF1_ng_ml
##        <dbl> <chr>          <chr>                 <dbl>      <dbl>
##  1     35095 Chinook salmon subyearling              90         NA
##  2     35097 Sockeye salmon juvenile                110         NA
##  3     35099 Sockeye salmon juvenile                111         NA
##  4     35036 Sockeye salmon juvenile                112         NA
##  5     35098 Sockeye salmon juvenile                112         NA
##  6     35147 Sockeye salmon juvenile                115         NA
##  7     35096 Sockeye salmon juvenile                115         NA
##  8     35100 Sockeye salmon juvenile                118         NA
##  9     35035 Sockeye salmon juvenile                121         NA
## 10     35119 Sockeye salmon juvenile                122         NA
## #  with 87 more rows

dplyr::arrange - (pt2)

Arrange sorts the dataframe based on specific variables

# Arrange the data first based on the variable common_name, 
# then secondly based on length_mm in a descending order.
arrange(df1, common_name, desc(length_mm))

## # A tibble: 97 x 5
##    salmon_id common_name    age_classbylength  length_mm IGF1_ng_ml
##        <dbl> <chr>          <chr>                  <dbl>      <dbl>
##  1     35033 Chinook salmon mixed age juvenile       444      62.1 
##  2     35146 Chinook salmon mixed age juvenile       422     101.  
##  3     35110 Chinook salmon mixed age juvenile       275      81.5 
##  4     35129 Chinook salmon yearling                 225      72.7 
##  5     35103 Chinook salmon yearling                 216      81.2 
##  6     35115 Chinook salmon yearling                 215      53.5 
##  7     35112 Chinook salmon yearling                 205      90.5 
##  8     35143 Chinook salmon yearling                 204      80.9 
##  9     35079 Chinook salmon yearling                 199      53.2 
## 10     35081 Chinook salmon yearling                 196       5.56
## #  with 87 more rows

dplyr::mutate - (pt1)

Mutate creates a new variable based on some form of computation

# A new variable is created based on the calculation of the
# z-score of the variable IGF1_ng_ml using scale()
mutate(df1, scale(IGF1_ng_ml))

## # A tibble: 97 x 6
##    salmon_id common_name    age_classbylength  length_mm IGF1_ng_ml `scale(IGF1_ng_ml)`[,1]
##        <dbl> <chr>          <chr>                  <dbl>      <dbl>                   <dbl>
##  1     35032 Chinook salmon yearling                 147       41.3                  -0.258
##  2     35035 Sockeye salmon juvenile                 121       NA                    NA    
##  3     35036 Sockeye salmon juvenile                 112       NA                    NA    
##  4     35037 Steelhead      juvenile                 220       42.7                  -0.191
##  5     35038 Steelhead      juvenile                 152       NA                    NA    
##  6     35033 Chinook salmon mixed age juvenile       444       62.1                   0.704
##  7     35034 Sockeye salmon juvenile                 139       NA                    NA    
##  8     35048 Steelhead      juvenile                 288       24.2                  -1.04 
##  9     35049 Steelhead      juvenile                 190       NA                    NA    
## 10     35050 Steelhead      juvenile                 283       63.5                   0.766
## #  with 87 more rows

dplyr::mutate - (pt2)

Mutate creates a named variable based on some form of computation

# A new variable is created called IGFngml_zscore, based on the 
# calculation of the z-score of the variable IGF1_ng_ml using scale()
mutate(df1, IGFngml_zscore = scale(IGF1_ng_ml))

## # A tibble: 97 x 6
##    salmon_id common_name    age_classbylength  length_mm IGF1_ng_ml IGFngml_zscore[,1]
##        <dbl> <chr>          <chr>                  <dbl>      <dbl>              <dbl>
##  1     35032 Chinook salmon yearling                 147       41.3             -0.258
##  2     35035 Sockeye salmon juvenile                 121       NA               NA    
##  3     35036 Sockeye salmon juvenile                 112       NA               NA    
##  4     35037 Steelhead      juvenile                 220       42.7             -0.191
##  5     35038 Steelhead      juvenile                 152       NA               NA    
##  6     35033 Chinook salmon mixed age juvenile       444       62.1              0.704
##  7     35034 Sockeye salmon juvenile                 139       NA               NA    
##  8     35048 Steelhead      juvenile                 288       24.2             -1.04 
##  9     35049 Steelhead      juvenile                 190       NA               NA    
## 10     35050 Steelhead      juvenile                 283       63.5              0.766
## #  with 87 more rows

CHALLENGE

_ Create a dataframe with a new variable that contains the rank of the length variable. Arrange this new data frame by IGF (lowest to highest). _ Create a dataframe with a new variable that is IGF/length. Arrange by this new variable (highest to lowest).

ANSWERS

# Create a dataframe with a new variable that contains the rank 
# of the _length_ variable. Arrange this new data frame by 
# _IGF_ (lowest to highest).
df1_A <- mutate(df1, length_rank=rank(length_mm))
arrange(df1_A, IGF1_ng_ml)

## # A tibble: 97 x 6
##    salmon_id common_name    age_classbylength length_mm IGF1_ng_ml length_rank
##        <dbl> <chr>          <chr>                 <dbl>      <dbl>       <dbl>
##  1     35045 Steelhead      juvenile                177       4.46        49  
##  2     35081 Chinook salmon yearling                196       5.56        63.5
##  3     35062 Steelhead      juvenile                198       5.90        65.5
##  4     35138 Chinook salmon yearling                142       9.17        18  
##  5     35039 Steelhead      juvenile                201       9.92        70  
##  6     35135 Chinook salmon yearling                181      11.5         52.5
##  7     35113 Chinook salmon yearling                162      14.2         38  
##  8     35064 Steelhead      juvenile                225      16.0         80.5
##  9     35082 Chinook salmon yearling                150      17.1         29.5
## 10     35057 Steelhead      juvenile                240      20.2         86  
## #  with 87 more rows

# Create a dataframe with a new variable that is _IGF_/_length_. 
# Arrange by this new variable (highest to lowest).
df1_A <- mutate(df1, IGF_perlength=IGF1_ng_ml/length_mm)
arrange(df1_A, -IGF_perlength)

## # A tibble: 97 x 6
##    salmon_id common_name    age_classbylength length_mm IGF1_ng_ml IGF_perlength
##        <dbl> <chr>          <chr>                 <dbl>      <dbl>         <dbl>
##  1     35055 Steelhead      juvenile                123       55.7         0.453
##  2     35087 Coho salmon    yearling                164       73.6         0.449
##  3     35142 Chinook salmon yearling                149       66.5         0.446
##  4     35112 Chinook salmon yearling                205       90.5         0.442
##  5     35092 Chinook salmon yearling                192       81.8         0.426
##  6     35117 Chinook salmon yearling                147       61.2         0.416
##  7     35090 Chinook salmon yearling                167       67.3         0.403
##  8     35143 Chinook salmon yearling                204       80.9         0.397
##  9     35059 Steelhead      juvenile                185       73.1         0.395
## 10     35101 Steelhead      juvenile                167       65.4         0.392
## #  with 87 more rows
…
dplyr::group_by - (pt2)

Grouping can also help filter within groups

# Filter observations with at least 5 for each grouped common_names
filter(df1_byname, n() > 5)

## # A tibble: 95 x 5
## # Groups:   common_name [3]
##    salmon_id common_name    age_classbylength  length_mm IGF1_ng_ml
##        <dbl> <chr>          <chr>                  <dbl>      <dbl>
##  1     35032 Chinook salmon yearling                 147       41.3
##  2     35035 Sockeye salmon juvenile                 121       NA  
##  3     35036 Sockeye salmon juvenile                 112       NA  
##  4     35037 Steelhead      juvenile                 220       42.7
##  5     35038 Steelhead      juvenile                 152       NA  
##  6     35033 Chinook salmon mixed age juvenile       444       62.1
##  7     35034 Sockeye salmon juvenile                 139       NA  
##  8     35048 Steelhead      juvenile                 288       24.2
##  9     35049 Steelhead      juvenile                 190       NA  
## 10     35050 Steelhead      juvenile                 283       63.5
## #  with 85 more rows

dplyr::group_by - (pt3)

Grouping creates a new variable based on some form of computation within the group

# A new variable is created using z-score within the grouped common_names
mutate(df1_byname, IGFngml_zscore = scale(IGF1_ng_ml))

## # A tibble: 97 x 6
## # Groups:   common_name [4]
##    salmon_id common_name    age_classbylength  length_mm IGF1_ng_ml IGFngml_zscore
##        <dbl> <chr>          <chr>                  <dbl>      <dbl>          <dbl>
##  1     35032 Chinook salmon yearling                 147       41.3         -0.236
##  2     35035 Sockeye salmon juvenile                 121       NA           NA    
##  3     35036 Sockeye salmon juvenile                 112       NA           NA    
##  4     35037 Steelhead      juvenile                 220       42.7         -0.176
##  5     35038 Steelhead      juvenile                 152       NA           NA    
##  6     35033 Chinook salmon mixed age juvenile       444       62.1          0.652
##  7     35034 Sockeye salmon juvenile                 139       NA           NA    
##  8     35048 Steelhead      juvenile                 288       24.2         -1.12 
##  9     35049 Steelhead      juvenile                 190       NA           NA    
## 10     35050 Steelhead      juvenile                 283       63.5          0.890
## #  with 87 more rows
…
Reading in with readr - (pt1)

# readr gives you a tibble. 
read_csv("dataset/hemato_rnaseq_counts.csv")

## Parsed with column specification:
## cols(
##   ENTREZ = col_double(),
##   CD34_1 = col_double(),
##   ORTHO_1 = col_double(),
##   CD34_2 = col_double(),
##   ORTHO_2 = col_double()
## )

## # A tibble: 100 x 5
##    ENTREZ CD34_1 ORTHO_1 CD34_2 ORTHO_2
##     <dbl>  <dbl>   <dbl>  <dbl>   <dbl>
##  1    350    204       0    103       0
##  2    351  15586     479  10476      39
##  3    353    842     355   1188      86
##  4    354      0       0      0       0
##  5    355    123     291    139      16
##  6    356      1       1      0       0
##  7    357    380       3    177       0
##  8    358    572    2225    597    4051
##  9    359      0      12      1       0
## 10    360    320     502     46    1114
## #  with 90 more rows
…
